[0.000000] (-) TimerEvent: {}
[0.000321] (dobot_sub) JobQueued: {'identifier': 'dobot_sub', 'dependencies': OrderedDict()}
[0.000381] (dobot_sub) JobStarted: {'identifier': 'dobot_sub'}
[0.099900] (-) TimerEvent: {}
[0.200147] (-) TimerEvent: {}
[0.300391] (-) TimerEvent: {}
[0.400612] (-) TimerEvent: {}
[0.484027] (dobot_sub) Command: {'cmd': ['/usr/bin/python3', 'setup.py', 'egg_info', '--egg-base', 'build/dobot_sub', 'build', '--build-base', '/home/ide/projects/dobot_sub/build/dobot_sub/build', 'install', '--record', '/home/ide/projects/dobot_sub/build/dobot_sub/install.log', '--single-version-externally-managed'], 'cwd': '/home/ide/projects/dobot_sub', 'env': {'LESSOPEN': '| /usr/bin/lesspipe %s', 'USER': 'ide', 'LC_TIME': 'ja_JP.UTF-8', 'XDG_SESSION_TYPE': 'x11', 'SHLVL': '1', 'LD_LIBRARY_PATH': '/opt/ros/humble/opt/rviz_ogre_vendor/lib:/opt/ros/humble/lib/x86_64-linux-gnu:/opt/ros/humble/lib:/usr/local/lib', 'HOME': '/home/ide', 'OLDPWD': '/home/ide/projects', 'DESKTOP_SESSION': 'ubuntu', 'ROS_PYTHON_VERSION': '3', 'GNOME_SHELL_SESSION_MODE': 'ubuntu', 'GTK_MODULES': 'gail:atk-bridge', 'LC_MONETARY': 'ja_JP.UTF-8', 'SYSTEMD_EXEC_PID': '1762', 'DBUS_SESSION_BUS_ADDRESS': 'unix:path=/run/user/1000/bus', 'COLORTERM': 'truecolor', 'COLCON_PREFIX_PATH': '/home/ide/projects/dobot_sub/install', 'ROS_DISTRO': 'humble', 'GTK_IM_MODULE': 'ibus', 'LOGNAME': 'ide', '_': '/usr/bin/colcon', 'ROS_VERSION': '2', 'XDG_SESSION_CLASS': 'user', 'USERNAME': 'ide', 'TERM': 'xterm-256color', 'GNOME_DESKTOP_SESSION_ID': 'this-is-deprecated', 'ROS_LOCALHOST_ONLY': '0', 'WINDOWPATH': '2', 'PATH': '/opt/ros/humble/bin:/home/ide/.local/bin:/usr/local/sbin:/usr/local/bin:/usr/sbin:/usr/bin:/sbin:/bin:/usr/games:/usr/local/games:/snap/bin:/snap/bin', 'SESSION_MANAGER': 'local/ide-ubuntu:@/tmp/.ICE-unix/1735,unix/ide-ubuntu:/tmp/.ICE-unix/1735', 'PYTHON_EXECUTABLE': '/home/ide/.anyenv/envs/pyenv/shims/python', 'XDG_MENU_PREFIX': 'gnome-', 'LC_ADDRESS': 'ja_JP.UTF-8', 'GNOME_TERMINAL_SCREEN': '/org/gnome/Terminal/screen/ae09d1be_3ee3_4113_917d_250045d0b748', 'XDG_RUNTIME_DIR': '/run/user/1000', 'DISPLAY': ':1', 'LANG': 'en_US.UTF-8', 'XDG_CURRENT_DESKTOP': 'ubuntu:GNOME', 'LC_TELEPHONE': 'ja_JP.UTF-8', 'XMODIFIERS': '@im=ibus', 'XDG_SESSION_DESKTOP': 'ubuntu', 'XAUTHORITY': '/run/user/1000/gdm/Xauthority', 'LS_COLORS': 'rs=0:di=01;34:ln=01;36:mh=00:pi=40;33:so=01;35:do=01;35:bd=40;33;01:cd=40;33;01:or=40;31;01:mi=00:su=37;41:sg=30;43:ca=30;41:tw=30;42:ow=34;42:st=37;44:ex=01;32:*.tar=01;31:*.tgz=01;31:*.arc=01;31:*.arj=01;31:*.taz=01;31:*.lha=01;31:*.lz4=01;31:*.lzh=01;31:*.lzma=01;31:*.tlz=01;31:*.txz=01;31:*.tzo=01;31:*.t7z=01;31:*.zip=01;31:*.z=01;31:*.dz=01;31:*.gz=01;31:*.lrz=01;31:*.lz=01;31:*.lzo=01;31:*.xz=01;31:*.zst=01;31:*.tzst=01;31:*.bz2=01;31:*.bz=01;31:*.tbz=01;31:*.tbz2=01;31:*.tz=01;31:*.deb=01;31:*.rpm=01;31:*.jar=01;31:*.war=01;31:*.ear=01;31:*.sar=01;31:*.rar=01;31:*.alz=01;31:*.ace=01;31:*.zoo=01;31:*.cpio=01;31:*.7z=01;31:*.rz=01;31:*.cab=01;31:*.wim=01;31:*.swm=01;31:*.dwm=01;31:*.esd=01;31:*.jpg=01;35:*.jpeg=01;35:*.mjpg=01;35:*.mjpeg=01;35:*.gif=01;35:*.bmp=01;35:*.pbm=01;35:*.pgm=01;35:*.ppm=01;35:*.tga=01;35:*.xbm=01;35:*.xpm=01;35:*.tif=01;35:*.tiff=01;35:*.png=01;35:*.svg=01;35:*.svgz=01;35:*.mng=01;35:*.pcx=01;35:*.mov=01;35:*.mpg=01;35:*.mpeg=01;35:*.m2v=01;35:*.mkv=01;35:*.webm=01;35:*.webp=01;35:*.ogm=01;35:*.mp4=01;35:*.m4v=01;35:*.mp4v=01;35:*.vob=01;35:*.qt=01;35:*.nuv=01;35:*.wmv=01;35:*.asf=01;35:*.rm=01;35:*.rmvb=01;35:*.flc=01;35:*.avi=01;35:*.fli=01;35:*.flv=01;35:*.gl=01;35:*.dl=01;35:*.xcf=01;35:*.xwd=01;35:*.yuv=01;35:*.cgm=01;35:*.emf=01;35:*.ogv=01;35:*.ogx=01;35:*.aac=00;36:*.au=00;36:*.flac=00;36:*.m4a=00;36:*.mid=00;36:*.midi=00;36:*.mka=00;36:*.mp3=00;36:*.mpc=00;36:*.ogg=00;36:*.ra=00;36:*.wav=00;36:*.oga=00;36:*.opus=00;36:*.spx=00;36:*.xspf=00;36:', 'GNOME_TERMINAL_SERVICE': ':1.92', 'SSH_AGENT_LAUNCHER': 'gnome-keyring', 'SSH_AUTH_SOCK': '/run/user/1000/keyring/ssh', 'AMENT_PREFIX_PATH': '/home/ide/projects/dobot_sub/install/dobot_sub:/opt/ros/humble', 'SHELL': '/bin/bash', 'LC_NAME': 'ja_JP.UTF-8', 'QT_ACCESSIBILITY': '1', 'GDMSESSION': 'ubuntu', 'LESSCLOSE': '/usr/bin/lesspipe %s %s', 'LC_MEASUREMENT': 'ja_JP.UTF-8', 'GPG_AGENT_INFO': '/run/user/1000/gnupg/S.gpg-agent:0:1', 'LC_IDENTIFICATION': 'ja_JP.UTF-8', 'QT_IM_MODULE': 'ibus', 'PWD': '/home/ide/projects/dobot_sub/build/dobot_sub', 'LC_ALL': 'en_US.UTF-8', 'XDG_CONFIG_DIRS': '/etc/xdg/xdg-ubuntu:/etc/xdg', 'XDG_DATA_DIRS': '/usr/share/ubuntu:/usr/share/gnome:/usr/local/share/:/usr/share/:/var/lib/snapd/desktop', 'PYTHONPATH': '/home/ide/projects/dobot_sub/build/dobot_sub/prefix_override:/home/ide/projects/dobot_sub/install/dobot_sub/lib/python3.10/site-packages:/home/ide/projects/dobot_sub/install/dobot_sub/lib/python3.10/site-packages:/home/ide/projects:/opt/ros/humble/lib/python3.10/site-packages:/opt/ros/humble/local/lib/python3.10/dist-packages', 'LC_NUMERIC': 'ja_JP.UTF-8', 'LC_PAPER': 'ja_JP.UTF-8', 'COLCON': '1', 'VTE_VERSION': '6800'}, 'shell': False}
[0.500703] (-) TimerEvent: {}
[0.600893] (-) TimerEvent: {}
[0.645653] (dobot_sub) StdoutLine: {'line': b'running egg_info\n'}
[0.646035] (dobot_sub) StdoutLine: {'line': b'writing build/dobot_sub/dobot_sub.egg-info/PKG-INFO\n'}
[0.646236] (dobot_sub) StdoutLine: {'line': b'writing dependency_links to build/dobot_sub/dobot_sub.egg-info/dependency_links.txt\n'}
[0.646500] (dobot_sub) StdoutLine: {'line': b'writing entry points to build/dobot_sub/dobot_sub.egg-info/entry_points.txt\n'}
[0.646678] (dobot_sub) StdoutLine: {'line': b'writing requirements to build/dobot_sub/dobot_sub.egg-info/requires.txt\n'}
[0.646747] (dobot_sub) StdoutLine: {'line': b'writing top-level names to build/dobot_sub/dobot_sub.egg-info/top_level.txt\n'}
[0.647724] (dobot_sub) StdoutLine: {'line': b"reading manifest file 'build/dobot_sub/dobot_sub.egg-info/SOURCES.txt'\n"}
[0.648328] (dobot_sub) StdoutLine: {'line': b"writing manifest file 'build/dobot_sub/dobot_sub.egg-info/SOURCES.txt'\n"}
[0.648517] (dobot_sub) StdoutLine: {'line': b'running build\n'}
[0.648605] (dobot_sub) StdoutLine: {'line': b'running build_py\n'}
[0.648706] (dobot_sub) StdoutLine: {'line': b'copying dobot_sub/sub.py -> /home/ide/projects/dobot_sub/build/dobot_sub/build/lib/dobot_sub\n'}
[0.648773] (dobot_sub) StdoutLine: {'line': b'running install\n'}
[0.648860] (dobot_sub) StderrLine: {'line': b'/usr/lib/python3/dist-packages/setuptools/command/install.py:34: SetuptoolsDeprecationWarning: setup.py install is deprecated. Use build and pip and other standards-based tools.\n'}
[0.648922] (dobot_sub) StderrLine: {'line': b'  warnings.warn(\n'}
[0.649006] (dobot_sub) StdoutLine: {'line': b'running install_lib\n'}
[0.649413] (dobot_sub) StdoutLine: {'line': b'copying /home/ide/projects/dobot_sub/build/dobot_sub/build/lib/dobot_sub/sub.py -> /home/ide/projects/dobot_sub/install/dobot_sub/lib/python3.10/site-packages/dobot_sub\n'}
[0.649742] (dobot_sub) StdoutLine: {'line': b'byte-compiling /home/ide/projects/dobot_sub/install/dobot_sub/lib/python3.10/site-packages/dobot_sub/sub.py to sub.cpython-310.pyc\n'}
[0.650171] (dobot_sub) StdoutLine: {'line': b'running install_data\n'}
[0.650542] (dobot_sub) StdoutLine: {'line': b'running install_egg_info\n'}
[0.651605] (dobot_sub) StdoutLine: {'line': b"removing '/home/ide/projects/dobot_sub/install/dobot_sub/lib/python3.10/site-packages/dobot_sub-0.0.0-py3.10.egg-info' (and everything under it)\n"}
[0.651846] (dobot_sub) StdoutLine: {'line': b'Copying build/dobot_sub/dobot_sub.egg-info to /home/ide/projects/dobot_sub/install/dobot_sub/lib/python3.10/site-packages/dobot_sub-0.0.0-py3.10.egg-info\n'}
[0.652453] (dobot_sub) StdoutLine: {'line': b'running install_scripts\n'}
[0.665674] (dobot_sub) StdoutLine: {'line': b'Installing listener script to /home/ide/projects/dobot_sub/install/dobot_sub/lib/dobot_sub\n'}
[0.665903] (dobot_sub) StdoutLine: {'line': b"writing list of installed files to '/home/ide/projects/dobot_sub/build/dobot_sub/install.log'\n"}
[0.678510] (dobot_sub) CommandEnded: {'returncode': 0}
[0.705585] (-) TimerEvent: {}
[0.722306] (dobot_sub) JobEnded: {'identifier': 'dobot_sub', 'rc': 0}
[0.722928] (-) EventReactorShutdown: {}
