running egg_info
writing build/dobot_sub/dobot_sub.egg-info/PKG-INFO
writing dependency_links to build/dobot_sub/dobot_sub.egg-info/dependency_links.txt
writing entry points to build/dobot_sub/dobot_sub.egg-info/entry_points.txt
writing requirements to build/dobot_sub/dobot_sub.egg-info/requires.txt
writing top-level names to build/dobot_sub/dobot_sub.egg-info/top_level.txt
reading manifest file 'build/dobot_sub/dobot_sub.egg-info/SOURCES.txt'
writing manifest file 'build/dobot_sub/dobot_sub.egg-info/SOURCES.txt'
running build
running build_py
copying dobot_sub/sub.py -> /home/ide/projects/dobot_sub/build/dobot_sub/build/lib/dobot_sub
running install
running install_lib
copying /home/ide/projects/dobot_sub/build/dobot_sub/build/lib/dobot_sub/sub.py -> /home/ide/projects/dobot_sub/install/dobot_sub/lib/python3.10/site-packages/dobot_sub
byte-compiling /home/ide/projects/dobot_sub/install/dobot_sub/lib/python3.10/site-packages/dobot_sub/sub.py to sub.cpython-310.pyc
running install_data
running install_egg_info
removing '/home/ide/projects/dobot_sub/install/dobot_sub/lib/python3.10/site-packages/dobot_sub-0.0.0-py3.10.egg-info' (and everything under it)
Copying build/dobot_sub/dobot_sub.egg-info to /home/ide/projects/dobot_sub/install/dobot_sub/lib/python3.10/site-packages/dobot_sub-0.0.0-py3.10.egg-info
running install_scripts
Installing listener script to /home/ide/projects/dobot_sub/install/dobot_sub/lib/dobot_sub
writing list of installed files to '/home/ide/projects/dobot_sub/build/dobot_sub/install.log'
